[
	{
		"used": "Internal",
		"key": "SiaPaKPdtLkvZ5u7ll5aIg==",
		"pass": "false",
		"version": "1.1"
	},
	{
		"used": "External",
		"key": "SiaPaKPdtLkvZ5u7ll5aIg==",
		"pass": "false",
		"version": "1.1"
	},
	{
		"used": "CAM",
		"key": "SiaPaKPdtLkvZ5u7ll5aIg==",
		"pass": "true",
		"version": "1.1"
	}
]